<?xml version="1.0" encoding="UTF-8"?>
<svg id="Layer_2" data-name="Layer 2" xmlns="http://www.w3.org/2000/svg" viewBox="0 0 371.02 508.4">
  <defs>
    <style>
      .cls-1 {
        fill: #6c5ffc;
        stroke-width: 0px;
      }
    </style>
  </defs>
  <g id="Layer_1-2" data-name="Layer 1">
    <path class="cls-1" d="M311.03,390.98c0,6.26-2.29,12.04-6.26,16.38H91.83c-14.09-15.17-2.41-41.67,18.55-41.19h175.84c13.73,0,24.81,11.08,24.81,24.81ZM91.83,424.1c-14.09,15.17-2.41,41.67,18.55,41.19h175.84c20.96.48,32.64-26.13,18.43-41.19H91.83ZM161.81,508.4h73.1c15.66,0,28.54-11.44,31.07-26.38h-135.25c2.53,14.93,15.42,26.38,31.07,26.38ZM319.94,261.75c-25.77,22.4-41.55,53.96-44.8,87.68h-53.35V12.21c0-7.11,6.02-12.77,13.13-12.16,131.76,11.68,183.18,177.04,85.03,261.71h0ZM343.3,149.02c.36-50.58-32.88-98.03-80.81-114.53-4.94-1.81-10.6.84-12.28,5.9-1.81,5.06.72,10.48,5.78,12.28,40.23,13.85,68.29,53.71,67.93,96.35.24,12.65,19.27,12.65,19.39,0h0ZM98.22,292.1c6.26-6.5,20.47-14.93,25.77-3.01,1.93,4.94-.6,10.6-5.66,12.53-21.68,9.88-10.48,39.14,3.01,47.81h43.24c9.27-6.74,15.3-17.58,15.3-29.87V46.53c-.24-39.38-54.2-50.94-70.33-15.17,13.01,2.53,51.43,35.29,23.85,41.43-9.15-.36-11.2-12.53-18.43-16.62-36.25-28.66-87.8,10.6-72.14,52.39,16.38-3.01,37.94,5.06,48.9,18.91,5.42,5.9.48,16.14-7.35,15.9-2.77,0-5.42-1.2-7.35-3.49-2.53-3.01-8.19-8.55-17.1-11.08-6.26-2.05-14.93-1.57-19.99.12-49.98,14.57-54.08,85.63-6.38,105.98,6.5-10.48,44.56-39.5,51.43-19.15,1.32,5.18-1.93,10.48-6.99,11.68-54.92,13.61-47.33,90.69,9.27,92.25.12-9.39,3.13-19.75,10.96-27.58h0Z"/>
  </g>
</svg>